X-Received: by 10.68.183.197 with SMTP id eo5mr12862619pbc.9.1401712848702;
        Mon, 02 Jun 2014 05:40:48 -0700 (PDT)
Return-Path: <labrut@gmail.com>
Received: from mail-qa0-x234.google.com (mail-qa0-x234.google.com [2607:f8b0:400d:c00::234])
        by gmr-mx.google.com with ESMTPS id k3si1646697qcn.2.2014.06.02.05.40.48
        for <topic1@vo-project.appspotmail.com>
        (version=TLSv1 cipher=ECDHE-RSA-RC4-SHA bits=128/128);
        Mon, 02 Jun 2014 05:40:48 -0700 (PDT)
Received-SPF: pass (google.com: domain of labrut@gmail.com designates 2607:f8b0:400d:c00::234 as permitted sender) client-ip=2607:f8b0:400d:c00::234;
Authentication-Results: gmr-mx.google.com;
       spf=pass (google.com: domain of labrut@gmail.com designates 2607:f8b0:400d:c00::234 as permitted sender) smtp.mail=labrut@gmail.com;
       dkim=pass header.i=@gmail.com;
       dmarc=pass (p=NONE dis=NONE) header.from=gmail.com
Received: by mail-qa0-f52.google.com with SMTP id cm18so2643202qab.11
        for <topic1@vo-project.appspotmail.com>; Mon, 02 Jun 2014 05:40:48 -0700 (PDT)
DKIM-Signature: v=1; a=rsa-sha256; c=relaxed/relaxed;
        d=gmail.com; s=20120113;
        h=mime-version:in-reply-to:references:from:date:message-id:subject:to
         :content-type;
        bh=yIYvBVqPaldoVBqrPIfoxg2ZBAr603QR9Wy2uMSi6B0=;
        b=WssGCxHMMB3AGas2f6B7rYBWjZzIjvpAWXrUx4BjDpKPsSSbTbqcLZ1P1MCXK0r0gL
         xP53dJf/9uLAj2TeZND4WQJe/r4qgmUrBxXXy6L6tIEZldWFPJTNDQIfvGk5m1+seQyC
         kCxcX0G40tTyL/znwjSteokbOfp8Vg59p6dd/2yPvrYMVqrzukp/66aFXstfUzQgO6mb
         G3diU9izt1zBEWmVDAE7vcCOplRT9oFQE1HgCkqP4y9Vu3USeJIh9ElNB8f41SB8q/EP
         89RNLfFgpeWKeFlbKLJZ+SfATnJQk73qz77H7SfRyJi5MU33b4XYcHcXNeQyGRs269we
         2TVA==
X-Received: by 10.224.47.148 with SMTP id n20mr49168828qaf.90.1401712848557;
 Mon, 02 Jun 2014 05:40:48 -0700 (PDT)
MIME-Version: 1.0
Received: by 10.96.192.40 with HTTP; Mon, 2 Jun 2014 05:40:28 -0700 (PDT)
In-Reply-To: <001a1134a4c6da2bfa04fad9b11b@google.com>
References: <001a1134a4c6da2bfa04fad9b11b@google.com>
From: =?UTF-8?B?TWlrYcOrbCBMQUJSVVQgKC1NTC0p?= <labrut@gmail.com>
Date: Mon, 2 Jun 2014 14:40:28 +0200
Message-ID: <CAFvBiuV0Cen+nFFk4riK8q=WFSp49T+_odOSGM313fO0m4+uhg@mail.gmail.com>
Subject: Re: Subject du jour
To: topic1@vo-project.appspotmail.com
Content-Type: multipart/alternative; boundary=001a1134aeb46a5d3c04fad9b477

--001a1134aeb46a5d3c04fad9b477
Content-Type: text/plain; charset=UTF-8

Ca va ?


On Mon, Jun 2, 2014 at 2:40 PM, <topic1@vo-project.appspotmail.com> wrote:

>  [image: Mail open] [image: Agent show]  la question du jour  Yes
> <http://vo-project.appspot.com/agent_answers/answer/1/1/1?mailCode=2a4c92e764516469041727755377d53e>  No
>
> <http://vo-project.appspot.com/agent_answers/answer/1/1/2?mailCode=2a4c92e764516469041727755377d53e>  Maybe
>
> <http://vo-project.appspot.com/agent_answers/answer/1/1/3?mailCode=2a4c92e764516469041727755377d53e>
>
> sdfsds
>
> 2 users in topic
> <http://vo-project.appspot.com/topics?mailCode=2a4c92e764516469041727755377d53e#/view/1/users>
>  |  Quit topic
> <http://vo-project.appspot.com/topic_users/remove/1/1?mailCode=2a4c92e764516469041727755377d53e>
>  |  Add user
> <http://vo-project.appspot.com/topics?mailCode=2a4c92e764516469041727755377d53e#/view/1/users/add>
>  |  View full topic
> <http://vo-project.appspot.com/topics?mailCode=2a4c92e764516469041727755377d53e#/view/1>
>



--
Mikael LABRUT
---
Tel : 06 78 47 47 85
Gmail/Gtalk : labrut@gmail.com
MSN: lwp_studios@hotmail.com

--001a1134aeb46a5d3c04fad9b477
Content-Type: text/html; charset=UTF-8
Content-Transfer-Encoding: quoted-printable

<div dir=3D"ltr">Ca va ?</div><div class=3D"gmail_extra"><br><br><div class=
=3D"gmail_quote">On Mon, Jun 2, 2014 at 2:40 PM,  <span dir=3D"ltr">&lt;<a =
href=3D"mailto:topic1@vo-project.appspotmail.com" target=3D"_blank">topic1@=
vo-project.appspotmail.com</a>&gt;</span> wrote:<br>

<blockquote class=3D"gmail_quote" style=3D"margin:0 0 0 .8ex;border-left:1p=
x #ccc solid;padding-left:1ex"><u></u>

=09
	=09

	=09
		=09
	<div marginwidth=3D"0" marginheight=3D"0" style=3D"width:100%!important;ma=
rgin:0;padding:0;background-color:#fafafa">
		<img src=3D"http://vo-project.appspot.com/mails/open/1401712791897.png?ma=
ilCode=3D2a4c92e764516469041727755377d53e" width=3D"1" height=3D"1" alt=3D"=
Mail open">
							<center>
	<img src=3D"http://vo-project.appspot.com/agents/show/1/1401712793368.png?=
mailCode=3D2a4c92e764516469041727755377d53e" width=3D"1" height=3D"1" alt=
=3D"Agent show">
	<table style=3D"width:90%;border:1px solid black;color:#505050;font-family=
:Arial;font-size:10px;line-height:100%;text-align:center;background-color:#=
f5f5f5;color:#505050;font-family:Arial;font-size:14px;line-height:150%">


		<tbody><tr>
			<td width=3D"60%" valign=3D"top" style=3D"border-collapse:collapse;color=
:#505050;font-family:Arial;font-size:14px;line-height:150%;text-align:cente=
r">
				la question du jour
			</td>
														<td valign=3D"top" width=3D"13%" style=3D"border-collapse:col=
lapse;color:#505050;font-family:Arial;font-size:14px;line-height:150%;text-=
align:center">
					<a href=3D"http://vo-project.appspot.com/agent_answers/answer/1/1/1?ma=
ilCode=3D2a4c92e764516469041727755377d53e" target=3D"_blank">
						Yes
					</a>
				</td>
											<td valign=3D"top" width=3D"13%" style=3D"border-collapse:collap=
se;color:#505050;font-family:Arial;font-size:14px;line-height:150%;text-ali=
gn:center">
					<a href=3D"http://vo-project.appspot.com/agent_answers/answer/1/1/2?ma=
ilCode=3D2a4c92e764516469041727755377d53e" target=3D"_blank">
						No
					</a>
				</td>
											<td valign=3D"top" width=3D"13%" style=3D"border-collapse:collap=
se;color:#505050;font-family:Arial;font-size:14px;line-height:150%;text-ali=
gn:center">
					<a href=3D"http://vo-project.appspot.com/agent_answers/answer/1/1/3?ma=
ilCode=3D2a4c92e764516469041727755377d53e" target=3D"_blank">
						Maybe
					</a>
				</td>
					</tr>
	</tbody></table>
</center>					<p style=3D"color:#505050;font-family:Arial;font-size:14px;li=
ne-height:150%">sdfsds</p>
					<br>
	<a href=3D"http://vo-project.appspot.com/topics?mailCode=3D2a4c92e76451646=
9041727755377d53e#/view/1/users" target=3D"_blank">2 users in topic</a>
	=C2=A0|=C2=A0
	<a href=3D"http://vo-project.appspot.com/topic_users/remove/1/1?mailCode=
=3D2a4c92e764516469041727755377d53e" target=3D"_blank">Quit topic</a>
	=C2=A0|=C2=A0
	<a href=3D"http://vo-project.appspot.com/topics?mailCode=3D2a4c92e76451646=
9041727755377d53e#/view/1/users/add" target=3D"_blank">Add user</a>
	=C2=A0|=C2=A0
	<a href=3D"http://vo-project.appspot.com/topics?mailCode=3D2a4c92e76451646=
9041727755377d53e#/view/1" target=3D"_blank">View full topic</a>
		</div>
</blockquote></div><br><br clear=3D"all"><div><br></div>-- <br>Mikael LABRU=
T<br>---<br>Tel : 06 78 47 47 85<br>Gmail/Gtalk : <a href=3D"mailto:labrut@=
gmail.com" target=3D"_blank">labrut@gmail.com</a><br>MSN: <a href=3D"mailto=
:lwp_studios@hotmail.com" target=3D"_blank">lwp_studios@hotmail.com</a>
</div>

--001a1134aeb46a5d3c04fad9b477--
